{
    "@context": {
        "rdfpub": "http://rdf-pub.org#",
        "outboxSparql": {
            "@id": "rdfpub:outboxSparql",
            "@type": "@id"
        },
        "inboxSparql": {
            "@id": "rdfpub:inboxSparql",
            "@type": "@id"
        },       
        "commitId": {
            "@id": "rdfpub:commitId",
            "@type": "@id"
        }
    }
}
